gpio_17xx_40xx.h:379:20:Chip_GPIO_SetPortOutHigh	24	static
gpio_17xx_40xx.h:394:20:Chip_GPIO_SetValue	24	static
gpio_17xx_40xx.h:422:20:Chip_GPIO_SetPortOutLow	24	static
gpio_17xx_40xx.h:436:20:Chip_GPIO_ClearValue	24	static
LCD_CHAR.c:19:6:delay	24	static
LCD_CHAR.c:24:6:nibble_lcd4	16	static
LCD_CHAR.c:44:6:write_com_lcd4	16	static
LCD_CHAR.c:58:6:write_data_lcd4	16	static
LCD_CHAR.c:71:6:mode4bit	8	static
LCD_CHAR.c:94:6:ClearDisplay4	8	static
LCD_CHAR.c:102:6:ReturnHome4	8	static
LCD_CHAR.c:108:6:EntryModeSet4	16	static
LCD_CHAR.c:115:6:DisplayOnOff4	16	static
LCD_CHAR.c:122:6:CurDisShift4	16	static
LCD_CHAR.c:129:6:FuntionSet4	16	static
LCD_CHAR.c:136:6:SetCGRAMAddress4	16	static
LCD_CHAR.c:143:6:SetDDRAMAddress4	16	static
LCD_CHAR.c:150:6:lcd_char_init4	8	static
LCD_CHAR.c:170:6:line_lcd4	16	static
LCD_CHAR.c:186:15:char_read_lcd4	16	static
